%YAML 1.1
%TAG !u! tag:unity3d.com,2011:
--- !u!1045 &1
EditorBuildSettings:
  m_ObjectHideFlags: 0
  serializedVersion: 2
  m_Scenes:
  - enabled: 1
    path: Assets/Scenes/GameScenes/MainMenu.unity
    guid: 4a721205c40a37d4ba624f472fc579ed
  - enabled: 1
    path: Assets/Scenes/GameScenes/GameScene.unity
    guid: 9791abb57adf4244abf0314c39e9779e
  - enabled: 1
    path: Assets/Scenes/GameScenes/Game Over.unity
    guid: fd3032280cabedc438eefe07a1f4f48e
  m_configObjects:
    com.unity.adaptiveperformance.loader_settings: {fileID: 11400000, guid: af7342d941b84da49ab09379f2d2bdc1, type: 2}
    com.unity.adaptiveperformance.samsung.android.provider_settings: {fileID: 11400000, guid: f6fe8d5396d318e4a9829bc18b145d7e, type: 2}
    com.unity.adaptiveperformance.simulator.provider_settings: {fileID: 11400000, guid: 8db49edd992e00b498cef4544560226c, type: 2}
