%YAML 1.1
%TAG !u! tag:unity3d.com,2011:
--- !u!114 &-4723079189325797066
MonoBehaviour:
  m_ObjectHideFlags: 2
  m_CorrespondingSourceObject: {fileID: 0}
  m_PrefabInstance: {fileID: 0}
  m_PrefabAsset: {fileID: 0}
  m_GameObject: {fileID: 0}
  m_Enabled: 1
  m_EditorHideFlags: 0
  m_Script: {fileID: 11500000, guid: 536372c49e1ca914d822849d36de938c, type: 3}
  m_Name: Android Providers
  m_EditorClassIdentifier: 
  m_AutomaticLoading: 0
  m_AutomaticRunning: 0
  m_Loaders:
  - {fileID: 11400000, guid: 5384cb397bda55d4f83340e07a1a4e04, type: 2}
--- !u!114 &-1694908166041817865
MonoBehaviour:
  m_ObjectHideFlags: 2
  m_CorrespondingSourceObject: {fileID: 0}
  m_PrefabInstance: {fileID: 0}
  m_PrefabAsset: {fileID: 0}
  m_GameObject: {fileID: 0}
  m_Enabled: 1
  m_EditorHideFlags: 0
  m_Script: {fileID: 11500000, guid: 179fc3111e144bc4688dca4038b3265d, type: 3}
  m_Name: Android Settings
  m_EditorClassIdentifier: 
  m_LoaderManagerInstance: {fileID: -4723079189325797066}
  m_InitManagerOnStart: 1
--- !u!114 &11400000
MonoBehaviour:
  m_ObjectHideFlags: 2
  m_CorrespondingSourceObject: {fileID: 0}
  m_PrefabInstance: {fileID: 0}
  m_PrefabAsset: {fileID: 0}
  m_GameObject: {fileID: 0}
  m_Enabled: 1
  m_EditorHideFlags: 0
  m_Script: {fileID: 11500000, guid: cb0ece14d1f711a4fb9325ca819dee95, type: 3}
  m_Name: AdaptivePerformanceGeneralSettings
  m_EditorClassIdentifier: 
  Keys: 07000000
  Values:
  - {fileID: -1694908166041817865}
